Statistical rethinking 2023 (brms examples)
…
Another way to do this is to use the fitted function

Code

f <-
  fitted(b1.1, 
         summary = F,
         scale = "linear") %>% 
  data.frame() %>% 
  set_names("proportion") %>% 
  as_tibble()

f

# A tibble: 4,000 × 1
   proportion
        <dbl>
 1      0.705
 2      0.562
 3      0.584
 4      0.667
 5      0.694
 6      0.706
 7      0.654
 8      0.684
 9      0.682
10      0.658
# … with 3,990 more rows
…
Now lets detach rethinking, we need to do this so brms always works

Code

rm(Howell1)
detach(package:rethinking, unload = T)
library(brms)

Right lets have a quick look at the data

Code

Kalahari_data

# A tibble: 544 × 4
   height weight   age  male
    <dbl>  <dbl> <dbl> <int>
 1   152.   47.8    63     1
 2   140.   36.5    63     0
 3   137.   31.9    65     0
 4   157.   53.0    41     1
 5   145.   41.3    51     0
 6   164.   63.0    35     1
 7   149.   38.2    32     0
 8   169.   55.5    27     1
 9   148.   34.9    19     0
10   165.   54.5    54     1
# … with 534 more rows
…
